{
	"info": {
		"_postman_id": "5f18309e-8d6b-424f-af92-6f941bfa8174",
		"name": "Authors",
		"schema": "https://schema.getpostman.com/json/collection/v2.1.0/collection.json",
		"_exporter_id": "24193944"
	},
	"item": [
		{
			"name": "GET_Authors",
			"request": {
				"method": "GET",
				"header": [
					{
						"key": "accept",
						"value": "text/plain; v=1.0"
					}
				],
				"url": {
					"raw": "https://fakerestapi.azurewebsites.net/api/v1/Authors",
					"protocol": "https",
					"host": [
						"fakerestapi",
						"azurewebsites",
						"net"
					],
					"path": [
						"api",
						"v1",
						"Authors"
					]
				}
			},
			"response": []
		},
		{
			"name": "POST_Authors",
			"request": {
				"method": "POST",
				"header": [
					{
						"key": "accept",
						"value": "text/plain; v=1.0"
					},
					{
						"key": "Content-Type",
						"value": "application/json; v=1.0"
					}
				],
				"body": {
					"mode": "raw",
					"raw": "{\"id\":0,\"idBook\":0,\"firstName\":\"string\",\"lastName\":\"string\"}"
				},
				"url": {
					"raw": "https://fakerestapi.azurewebsites.net/api/v1/Authors",
					"protocol": "https",
					"host": [
						"fakerestapi",
						"azurewebsites",
						"net"
					],
					"path": [
						"api",
						"v1",
						"Authors"
					]
				}
			},
			"response": []
		},
		{
			"name": "GET_book_ID",
			"request": {
				"method": "GET",
				"header": [
					{
						"key": "accept",
						"value": "text/plain; v=1.0"
					}
				],
				"url": {
					"raw": "https://fakerestapi.azurewebsites.net/api/v1/Authors/authors/books/15",
					"protocol": "https",
					"host": [
						"fakerestapi",
						"azurewebsites",
						"net"
					],
					"path": [
						"api",
						"v1",
						"Authors",
						"authors",
						"books",
						"15"
					]
				}
			},
			"response": []
		},
		{
			"name": "GET_Authors_ID",
			"request": {
				"method": "GET",
				"header": [
					{
						"key": "accept",
						"value": "text/plain; v=1.0"
					}
				],
				"url": {
					"raw": "https://fakerestapi.azurewebsites.net/api/v1/Authors/15",
					"protocol": "https",
					"host": [
						"fakerestapi",
						"azurewebsites",
						"net"
					],
					"path": [
						"api",
						"v1",
						"Authors",
						"15"
					]
				}
			},
			"response": []
		},
		{
			"name": "PUT_Authors_ID",
			"request": {
				"method": "PUT",
				"header": [
					{
						"key": "accept",
						"value": "text/plain; v=1.0"
					},
					{
						"key": "Content-Type",
						"value": "application/json; v=1.0"
					}
				],
				"body": {
					"mode": "raw",
					"raw": "{\"id\":0,\"idBook\":0,\"firstName\":\"string\",\"lastName\":\"string\"}"
				},
				"url": {
					"raw": "https://fakerestapi.azurewebsites.net/api/v1/Authors/15",
					"protocol": "https",
					"host": [
						"fakerestapi",
						"azurewebsites",
						"net"
					],
					"path": [
						"api",
						"v1",
						"Authors",
						"15"
					]
				}
			},
			"response": []
		},
		{
			"name": "DELETE_Authors_ID",
			"request": {
				"method": "DELETE",
				"header": [
					{
						"key": "accept",
						"value": "*/*"
					}
				],
				"url": {
					"raw": "https://fakerestapi.azurewebsites.net/api/v1/Authors/15",
					"protocol": "https",
					"host": [
						"fakerestapi",
						"azurewebsites",
						"net"
					],
					"path": [
						"api",
						"v1",
						"Authors",
						"15"
					]
				}
			},
			"response": []
		}
	]
}