{
	"info": {
		"_postman_id": "1d24008d-bcb8-4f95-86e1-168e6ed91576",
		"name": "Books",
		"schema": "https://schema.getpostman.com/json/collection/v2.1.0/collection.json",
		"_exporter_id": "24193944"
	},
	"item": [
		{
			"name": "GET_Books",
			"request": {
				"method": "GET",
				"header": [
					{
						"key": "accept",
						"value": "text/plain; v=1.0"
					}
				],
				"url": {
					"raw": "https://fakerestapi.azurewebsites.net/api/v1/Books",
					"protocol": "https",
					"host": [
						"fakerestapi",
						"azurewebsites",
						"net"
					],
					"path": [
						"api",
						"v1",
						"Books"
					]
				}
			},
			"response": []
		},
		{
			"name": "POST_Books",
			"request": {
				"method": "POST",
				"header": [
					{
						"key": "accept",
						"value": "*/*"
					},
					{
						"key": "Content-Type",
						"value": "application/json; v=1.0"
					}
				],
				"body": {
					"mode": "raw",
					"raw": "{\"id\":0,\"title\":\"string\",\"description\":\"string\",\"pageCount\":0,\"excerpt\":\"string\",\"publishDate\":\"2022-11-09T02:15:24.026Z\"}"
				},
				"url": {
					"raw": "https://fakerestapi.azurewebsites.net/api/v1/Books",
					"protocol": "https",
					"host": [
						"fakerestapi",
						"azurewebsites",
						"net"
					],
					"path": [
						"api",
						"v1",
						"Books"
					]
				}
			},
			"response": []
		},
		{
			"name": "GET_Books_ID",
			"request": {
				"method": "GET",
				"header": [
					{
						"key": "accept",
						"value": "text/plain; v=1.0"
					}
				],
				"url": {
					"raw": "https://fakerestapi.azurewebsites.net/api/v1/Books/3",
					"protocol": "https",
					"host": [
						"fakerestapi",
						"azurewebsites",
						"net"
					],
					"path": [
						"api",
						"v1",
						"Books",
						"3"
					]
				}
			},
			"response": []
		},
		{
			"name": "PUT_Books_ID",
			"request": {
				"method": "PUT",
				"header": [
					{
						"key": "accept",
						"value": "*/*"
					},
					{
						"key": "Content-Type",
						"value": "application/json; v=1.0"
					}
				],
				"body": {
					"mode": "raw",
					"raw": "{\"id\":0,\"title\":\"string\",\"description\":\"string\",\"pageCount\":0,\"excerpt\":\"string\",\"publishDate\":\"2022-11-09T02:29:43.542Z\"}"
				},
				"url": {
					"raw": "https://fakerestapi.azurewebsites.net/api/v1/Books/3",
					"protocol": "https",
					"host": [
						"fakerestapi",
						"azurewebsites",
						"net"
					],
					"path": [
						"api",
						"v1",
						"Books",
						"3"
					]
				}
			},
			"response": []
		},
		{
			"name": "DELETE_Books",
			"request": {
				"method": "DELETE",
				"header": [
					{
						"key": "accept",
						"value": "*/*"
					}
				],
				"url": {
					"raw": "https://fakerestapi.azurewebsites.net/api/v1/Books/3",
					"protocol": "https",
					"host": [
						"fakerestapi",
						"azurewebsites",
						"net"
					],
					"path": [
						"api",
						"v1",
						"Books",
						"3"
					]
				}
			},
			"response": []
		}
	]
}